{
  "name": "brain-sds",
  "configFiles": [
    {
      "dir": "etc",
      "mappings": [
        {
          "template": "brain-sds.conf.in",
          "useReserved": true
        }
      ]
    },
    {
      "dir": "etc/supervisor/conf.d",
      "mappings": [
        {
          "template": "brain-sds.conf.in"
        }
      ]
    }
  ],
  "variables": [
    {
      "variable": "LOGS_DIR",
      "description": "logs directory",
      "default_value": "${MAUM_ROOT}/logs"
    },
    {
      "variable": "LOG_MAX_FILE_SIZE",
      "description": "CPP speed log max file size",
      "default_value": "5M"
    },
    {
      "variable": "LOG_DAILY_ROTATE",
      "description": "CPP speed log whether daily rotate or not",
      "default_value": "false"
    },
    {
      "variable": "LOG_ROTATE_COUNT",
      "description": "CPP speed log rotate count",
      "default_value": "10"
    },
    {
      "variable": "SPDLOG_DEFAULT_LEVEL",
      "description": "CPP speedlog default log level",
      "default_value": "trace"
    },
    {
      "variable": "SPDLOG_ENG_EDU_LEVEL",
      "description": "CPP speedlog eng-edu log level",
      "default_value": "debug"
    },
    {
      "variable": "SPDLOG_ENG_EXT_LEVEL",
      "description": "CPP speedlog eng-ext log level",
      "default_value": "debug"
    },
    {
      "variable": "SPDLOG_ENG_INT_LEVEL",
      "description": "CPP speedlog eng-int log level",
      "default_value": "debug"
    },
    {
      "variable": "SPDLOG_KOR_EXT_LEVEL",
      "description": "CPP speedlog kor-ext log level",
      "default_value": "debug"
    },
    {
      "variable": "SPDLOG_KOR_INT_LEVEL",
      "description": "CPP speedlog kor-int log level",
      "default_value": "debug"
    },
    {
      "variable": "SPDLOG_SDS_RESOLVER_LEVEL",
      "description": "CPP speedlog sds-resolver log level",
      "default_value": "debug"
    },
    {
      "variable": "SPDLOG_MONITOR_PLUGIN",
      "description": "CPP speedlog monitoring plug-in",
      "default_value": ""
    },
    {
      "variable": "SPDLOG_MONITOR_WRITE_FUNCTION",
      "description": "CPP speedlog monitoring write-function",
      "default_value": ""
    },
    {
      "variable": "SPDLOG_MONITOR_LEVEL",
      "description": "CPP speedlog monitoring level",
      "default_value": "warning"
    },
    {
      "variable": "LOGS_MASKING_ENABLE",
      "description": "Logback masking enable option",
      "default_value": "true"
    },
    {
      "variable": "BRAIN_SDS_RESOLVER_PORT",
      "description": "brain sds resolver port",
      "default_value": "9860"
    },
    {
      "variable": "BRAIN_SDS_TRAINER_PORT",
      "description": "brain sds trainer port",
      "default_value": "9861"
    },
    {
      "variable": "BRAIN_SDS_KOR_KNOWLEDGE_ENCODING",
      "description": "Encoding type of Korean knowledge-file.",
      "default_value": "utf-8"
    },
    {
      "variable": "SDS_MIN_PORT",
      "description": "brain sds sub-sdsd min port",
      "default_value": "10000"
    },
    {
      "variable": "SDS_MAX_PORT",
      "description": "brain sds sub-sdsd max port",
      "default_value": "10300"
    }
  ]
}
